Plotting with `ggplot2` | Columbia Psychology Scientific Computing
…
nhanes <- mutate(nhanes,
                 Age = Age/12, # convert age to years
                 Urban = dplyr::recode(Urban, '1' = 'Metro Area', '2' = 'Non-Metro Area'),
                 Region = dplyr::recode(Region, '1' = 'Northeast', '2' = 'Midwest', '3' = 'South', '4' = 'West'))

nhanes

## # A tibble: 27,821 x 7
##    Region    Sex   Age Urban          Weight Height   BMI
##    <chr>   <dbl> <dbl> <chr>           <dbl>  <dbl> <dbl>
##  1 South       2 42.8  Non-Metro Area  172.    65.3  28.4
##  2 West        1 25.6  Non-Metro Area  155.    62.3  28.2
##  3 West        2 73.8  Metro Area      167.    59.2  33.5
##  4 West        1 38.2  Metro Area      225.    71.9  30.6
##  5 Midwest     1 74    Non-Metro Area  245     67.7  37.6
##  6 West        2  2.75 Metro Area       28.3   35.2  16  
##  7 Midwest     1  3.25 Metro Area       29.3   38.6  13.8
##  8 South       1 17.4  Non-Metro Area  188.    57.9  39.5
##  9 Midwest     1  4.08 Metro Area       36.6   41.9  14.7
## 10 West        2 48.2  Non-Metro Area  182.    61.9  33.5
## # … with 27,811 more rows
…
