Programming, pt 0 | Columbia Psychology Scientific Computing
…
To generate a file path using here(), list the names of each subfolder in quotes, followed by the file name in quotes. Please note that these subfolder names should be listed from highest in the folder structure to lowest (ending with the subfolder where the data file is located).

here("content", "tutorials", "r-core", "1-programming", "shakes.csv")

## [1] "/Users/mthieu/Repos/cu-psych-r-tutorial/content/tutorials/r-core/1-programming/shakes.csv"

Reading the data into R

Then, to examine this file in R, place the file path inside the parentheses in the read_csv() function. You could do this by copying and pasting the full file path outputted by the here() function, but it is simpler to “nest” the here() function inside read_csv().

read_csv(here("content", "tutorials", "r-core", "1-programming", "shakes.csv"))

## # A tibble: 37 x 3
##    title                     genre   n.words
##    <chr>                     <chr>     <dbl>
##  1 All's Well That Ends Well Comedy    23009
##  2 Antony and Cleopatra      Tragedy   24905
##  3 As You Like It            Comedy    21690
##  4 Comedy of Errors          Comedy    14701
##  5 Coriolanus                Tragedy   27589
##  6 Cymbeline                 Tragedy   27565
##  7 Hamlet                    Tragedy   30557
##  8 Henry IV, Part I          History   24579
##  9 Henry IV, Part II         History   25689
## 10 Henry V                   History   26119
## # … with 27 more rows
…
