…
attempts to guess the data type of each column it reads and tells you what data type it guessed for each one, or you can manually specify the data type of each column upon reading in the data

always returns a tibble

Now, there will be cases when you need the fine-grained control over delimiter assumptions, header assumptions, and such that the base R file reading functions afford you. Most of the time, though, I find that read_csv() suits my needs well.

PS: In our companion R package, cuPsychRTools, we provide helper functions like read_csv_multi(), which wraps read_csv() to allow you to specify a vector of files to read instead of just one file. This way, you can read in multiple data files that contain different observations of the same data (e.g. a psychological task run on multiple subjects, with each subject’s data in a separate file) and have them all output into one very long df!

Visually inspecting data

The tidyverse introduces the tibble (via the tibble package, which is loaded automatically when you load the whole tidyverse). You can think of a tibble as a dataframe, but a little better. One of the reasons I like to work with tibbles is that visually inspecting them using the console is quite easy:

raw

## # A tibble: 1,000 x 10
##       id   age gender   q_1   q_2   q_3 trial_num is_old response    rt
##    <int> <int> <chr>  <dbl> <dbl> <dbl>     <int>  <int>    <int> <dbl>
##  1     1    32 male    26.6  23.7  37.8         1      0        1 6.01 
##  2     1    32 male    26.6  23.7  37.8         2      0        0 1.40 
##  3     1    32 male    26.6  23.7  37.8         3      1        1 3.19 
##  4     1    32 male    26.6  23.7  37.8         4      0        0 3.33 
##  5     1    32 male    26.6  23.7  37.8         5      0        0 0.865
##  6     1    32 male    26.6  23.7  37.8         6      1        1 6.39 
##  7     1    32 male    26.6  23.7  37.8         7      0        0 1.94 
##  8     1    32 male    26.6  23.7  37.8         8      1        1 3.50 
##  9     1    32 male    26.6  23.7  37.8         9      0        1 2.58 
## 10     1    32 male    26.6  23.7  37.8        10      0        0 3.53 
## # … with 990 more rows
…
Subsetting by column

dplyr::select() is the workhorse function for subsetting a df by column. You simply need to name the columns you would like to select!

Note that these are unquoted variable names and not a character vector. Tidyverse functions allow you to call column names bare as variables inside of them.

# This auto-indenting biz after the pipe works because the pipe is a left-right operator
# Remember that raw is getting piped into select() as the first argument
# so the only enumerated arguments inside select() are the columns of interest,
# which is kind of nice!
raw %>%
  select(id, age, gender, trial_num, is_old, response, rt)

## # A tibble: 1,000 x 7
##       id   age gender trial_num is_old response    rt
##    <int> <int> <chr>      <int>  <int>    <int> <dbl>
##  1     1    32 male           1      0        1 6.01 
##  2     1    32 male           2      0        0 1.40 
##  3     1    32 male           3      1        1 3.19 
##  4     1    32 male           4      0        0 3.33 
##  5     1    32 male           5      0        0 0.865
##  6     1    32 male           6      1        1 6.39 
##  7     1    32 male           7      0        0 1.94 
##  8     1    32 male           8      1        1 3.50 
##  9     1    32 male           9      0        1 2.58 
## 10     1    32 male          10      0        0 3.53 
## # … with 990 more rows

Note that you can use select() to rename columns as well; simply put the new name in the argument name spot, and the old name in the argument value spot.

# Renaming columns is so smooth in the tidyverse!
raw %>%
  select(subject_id = id, age, gender, trial_num, is_old, response, rt)

## # A tibble: 1,000 x 7
##    subject_id   age gender trial_num is_old response    rt
##         <int> <int> <chr>      <int>  <int>    <int> <dbl>
##  1          1    32 male           1      0        1 6.01 
##  2          1    32 male           2      0        0 1.40 
##  3          1    32 male           3      1        1 3.19 
##  4          1    32 male           4      0        0 3.33 
##  5          1    32 male           5      0        0 0.865
##  6          1    32 male           6      1        1 6.39 
##  7          1    32 male           7      0        0 1.94 
##  8          1    32 male           8      1        1 3.50 
##  9          1    32 male           9      0        1 2.58 
## 10          1    32 male          10      0        0 3.53 
## # … with 990 more rows

There also exists a version of select() called rename() which behaves exactly as select() does, except that rename() never subsets columns, and always gives you all the columns of your original df (renamed or otherwise).

You can specify columns in select() by naming each individual column you want, or you can select groups of columns in the following ways.

You can use the colon : to select all columns between the ones named, kind of like when creating integer vectors using the colon:

raw %>%
  select(id:gender)

## # A tibble: 1,000 x 3
##       id   age gender
##    <int> <int> <chr> 
##  1     1    32 male  
##  2     1    32 male  
##  3     1    32 male  
##  4     1    32 male  
##  5     1    32 male  
##  6     1    32 male  
##  7     1    32 male  
##  8     1    32 male  
##  9     1    32 male  
## 10     1    32 male  
## # … with 990 more rows

You can also use any one of a series of special helper functions provided by dplyr to select columns in a regex-style way. Like so:

raw %>%
  select(id, starts_with("q"))

## # A tibble: 1,000 x 4
##       id   q_1   q_2   q_3
##    <int> <dbl> <dbl> <dbl>
##  1     1  26.6  23.7  37.8
##  2     1  26.6  23.7  37.8
##  3     1  26.6  23.7  37.8
##  4     1  26.6  23.7  37.8
##  5     1  26.6  23.7  37.8
##  6     1  26.6  23.7  37.8
##  7     1  26.6  23.7  37.8
##  8     1  26.6  23.7  37.8
##  9     1  26.6  23.7  37.8
## 10     1  26.6  23.7  37.8
## # … with 990 more rows

Check the the reference page for tidyselect::select_helpers to see all of these helper functions that are available to you.

Note that the order in which you specify columns/helper calls determines the ordering of the columns in your output.

raw %>%
  select(gender, age, id)

## # A tibble: 1,000 x 3
##    gender   age    id
##    <chr>  <int> <int>
##  1 male      32     1
##  2 male      32     1
##  3 male      32     1
##  4 male      32     1
##  5 male      32     1
##  6 male      32     1
##  7 male      32     1
##  8 male      32     1
##  9 male      32     1
## 10 male      32     1
## # … with 990 more rows

In this way, you can explicitly use select() to reorder columns without dropping columns. To do this, use the tidyselect helper function everything():

raw %>%
  select(id, gender, everything())

## # A tibble: 1,000 x 10
##       id gender   age   q_1   q_2   q_3 trial_num is_old response    rt
##    <int> <chr>  <int> <dbl> <dbl> <dbl>     <int>  <int>    <int> <dbl>
##  1     1 male      32  26.6  23.7  37.8         1      0        1 6.01 
##  2     1 male      32  26.6  23.7  37.8         2      0        0 1.40 
##  3     1 male      32  26.6  23.7  37.8         3      1        1 3.19 
##  4     1 male      32  26.6  23.7  37.8         4      0        0 3.33 
##  5     1 male      32  26.6  23.7  37.8         5      0        0 0.865
##  6     1 male      32  26.6  23.7  37.8         6      1        1 6.39 
##  7     1 male      32  26.6  23.7  37.8         7      0        0 1.94 
##  8     1 male      32  26.6  23.7  37.8         8      1        1 3.50 
##  9     1 male      32  26.6  23.7  37.8         9      0        1 2.58 
## 10     1 male      32  26.6  23.7  37.8        10      0        0 3.53 
## # … with 990 more rows

everything() essentially returns all the names of the other, not-explicitly-named columns, and keeps them all in their original order minus the columns you explicitly specified. You can use this syntax to pull a selected number of columns to the far left of your df, and then leave all other columns in their previous order.

You can also use select() to keep all columns except ones you specify. For this, use the - operator like so:

raw %>%
  select(-gender)

## # A tibble: 1,000 x 9
##       id   age   q_1   q_2   q_3 trial_num is_old response    rt
##    <int> <int> <dbl> <dbl> <dbl>     <int>  <int>    <int> <dbl>
##  1     1    32  26.6  23.7  37.8         1      0        1 6.01 
##  2     1    32  26.6  23.7  37.8         2      0        0 1.40 
##  3     1    32  26.6  23.7  37.8         3      1        1 3.19 
##  4     1    32  26.6  23.7  37.8         4      0        0 3.33 
##  5     1    32  26.6  23.7  37.8         5      0        0 0.865
##  6     1    32  26.6  23.7  37.8         6      1        1 6.39 
##  7     1    32  26.6  23.7  37.8         7      0        0 1.94 
##  8     1    32  26.6  23.7  37.8         8      1        1 3.50 
##  9     1    32  26.6  23.7  37.8         9      0        1 2.58 
## 10     1    32  26.6  23.7  37.8        10      0        0 3.53 
## # … with 990 more rows

You can combine the - with the : operator, or with one of the tidyselect helpers we saw before:

raw %>%
  select(-(trial_num:rt))

## # A tibble: 1,000 x 6
##       id   age gender   q_1   q_2   q_3
##    <int> <int> <chr>  <dbl> <dbl> <dbl>
##  1     1    32 male    26.6  23.7  37.8
##  2     1    32 male    26.6  23.7  37.8
##  3     1    32 male    26.6  23.7  37.8
##  4     1    32 male    26.6  23.7  37.8
##  5     1    32 male    26.6  23.7  37.8
##  6     1    32 male    26.6  23.7  37.8
##  7     1    32 male    26.6  23.7  37.8
##  8     1    32 male    26.6  23.7  37.8
##  9     1    32 male    26.6  23.7  37.8
## 10     1    32 male    26.6  23.7  37.8
## # … with 990 more rows

raw %>%
  select(-starts_with("q"))

## # A tibble: 1,000 x 7
##       id   age gender trial_num is_old response    rt
##    <int> <int> <chr>      <int>  <int>    <int> <dbl>
##  1     1    32 male           1      0        1 6.01 
##  2     1    32 male           2      0        0 1.40 
##  3     1    32 male           3      1        1 3.19 
##  4     1    32 male           4      0        0 3.33 
##  5     1    32 male           5      0        0 0.865
##  6     1    32 male           6      1        1 6.39 
##  7     1    32 male           7      0        0 1.94 
##  8     1    32 male           8      1        1 3.50 
##  9     1    32 male           9      0        1 2.58 
## 10     1    32 male          10      0        0 3.53 
## # … with 990 more rows

Subsetting by row

There are a number of dplyr functions which will, in some way, reduce the number of rows in your df.

Logical subsetting

filter() will return a df subset for only those rows that return TRUE for the logical statements specified in its arguments.

Notice that, as with other functions in the tidyverse, you call df columns as bare variable names, without needing $ or [] indexing.

raw %>%
  filter(id == 13)

## # A tibble: 50 x 10
##       id   age gender   q_1   q_2   q_3 trial_num is_old response    rt
##    <int> <int> <chr>  <dbl> <dbl> <dbl>     <int>  <int>    <int> <dbl>
##  1    13    35 female  46.7  38.9  17.3         1      0        1 2.74 
##  2    13    35 female  46.7  38.9  17.3         2      0        1 2.95 
##  3    13    35 female  46.7  38.9  17.3         3      0        0 2.10 
##  4    13    35 female  46.7  38.9  17.3         4      0        1 2.76 
##  5    13    35 female  46.7  38.9  17.3         5      1        1 3.08 
##  6    13    35 female  46.7  38.9  17.3         6      0        0 2.36 
##  7    13    35 female  46.7  38.9  17.3         7      0        0 3.00 
##  8    13    35 female  46.7  38.9  17.3         8      1        1 0.946
##  9    13    35 female  46.7  38.9  17.3         9      1        1 1.60 
## 10    13    35 female  46.7  38.9  17.3        10      1        1 6.23 
## # … with 40 more rows

filter() takes logical statements with & and | in them like you might use in bracket indexing.

# would I ordinarily use a %in% call for this?
# Yes I would, but this is just to show how the or operator | works here
raw %>%
  filter(id == 13 | id == 17)

## # A tibble: 100 x 10
##       id   age gender   q_1   q_2   q_3 trial_num is_old response    rt
##    <int> <int> <chr>  <dbl> <dbl> <dbl>     <int>  <int>    <int> <dbl>
##  1    13    35 female  46.7  38.9  17.3         1      0        1 2.74 
##  2    13    35 female  46.7  38.9  17.3         2      0        1 2.95 
##  3    13    35 female  46.7  38.9  17.3         3      0        0 2.10 
##  4    13    35 female  46.7  38.9  17.3         4      0        1 2.76 
##  5    13    35 female  46.7  38.9  17.3         5      1        1 3.08 
##  6    13    35 female  46.7  38.9  17.3         6      0        0 2.36 
##  7    13    35 female  46.7  38.9  17.3         7      0        0 3.00 
##  8    13    35 female  46.7  38.9  17.3         8      1        1 0.946
##  9    13    35 female  46.7  38.9  17.3         9      1        1 1.60 
## 10    13    35 female  46.7  38.9  17.3        10      1        1 6.23 
## # … with 90 more rows

filter() also has a nice feature: specifying separate logical statements as separate arguments, separated by commas, implicitly acts like chaining the statements together with &, since the intersection of logical vectors is probably the most common use case for row subsetting.

raw %>%
  select(id, age, gender, trial_num, is_old, response, rt) %>%
  filter(id == 13, is_old == 1)

## # A tibble: 25 x 7
##       id   age gender trial_num is_old response    rt
##    <int> <int> <chr>      <int>  <int>    <int> <dbl>
##  1    13    35 female         5      1        1 3.08 
##  2    13    35 female         8      1        1 0.946
##  3    13    35 female         9      1        1 1.60 
##  4    13    35 female        10      1        1 6.23 
##  5    13    35 female        11      1        1 2.29 
##  6    13    35 female        12      1        1 1.58 
##  7    13    35 female        13      1        0 0.903
##  8    13    35 female        16      1        1 0.606
##  9    13    35 female        17      1        1 2.53 
## 10    13    35 female        19      1        1 5.20 
## # … with 15 more rows
…
Subsetting by row and column simultaneously

Thanks to the pipe %>%, you can chain a select() call with a filter() (or otherwise) call to subset by row and by column in the same command.

In this case, order doesn’t super matter, so it’s a matter of personal preference as to which you ought to call first. I would generally recommend putting all renaming calls (if you are renaming any columns) as early as possible to allow the rest of the code to be consistent with itself re: column names.

raw %>%
  select(id, age, gender, trial_num, is_old, response, rt) %>%
  filter(id == 13)

## # A tibble: 50 x 7
##       id   age gender trial_num is_old response    rt
##    <int> <int> <chr>      <int>  <int>    <int> <dbl>
##  1    13    35 female         1      0        1 2.74 
##  2    13    35 female         2      0        1 2.95 
##  3    13    35 female         3      0        0 2.10 
##  4    13    35 female         4      0        1 2.76 
##  5    13    35 female         5      1        1 3.08 
##  6    13    35 female         6      0        0 2.36 
##  7    13    35 female         7      0        0 3.00 
##  8    13    35 female         8      1        1 0.946
##  9    13    35 female         9      1        1 1.60 
## 10    13    35 female        10      1        1 6.23 
## # … with 40 more rows
…
dplyr is the home for most of the functions of the tidyverse that deal with manipulating your data in some kind of way–creating new data, calculating summary data, etc. We’ll tour these functions by breaking them down into their use cases.

Creating/modifying columns

dplyr::mutate() will be your workhorse function for creating new columns or modifying existing ones in a df.

Inside of every mutate() call, as with previous tidyverse functions, column names are fed in as symbols (like variables, without quotes) without needing to $ index them from the parent df every time.

raw %>%
  # just to make the output narrower
  select(-starts_with("q")) %>%
  mutate(rt_ms = round(rt * 1000))

## # A tibble: 1,000 x 8
##       id   age gender trial_num is_old response    rt rt_ms
##    <int> <int> <chr>      <int>  <int>    <int> <dbl> <dbl>
##  1     1    32 male           1      0        1 6.01   6012
##  2     1    32 male           2      0        0 1.40   1404
##  3     1    32 male           3      1        1 3.19   3188
##  4     1    32 male           4      0        0 3.33   3326
##  5     1    32 male           5      0        0 0.865   865
##  6     1    32 male           6      1        1 6.39   6389
##  7     1    32 male           7      0        0 1.94   1943
##  8     1    32 male           8      1        1 3.50   3500
##  9     1    32 male           9      0        1 2.58   2575
## 10     1    32 male          10      0        0 3.53   3532
## # … with 990 more rows
…
This section features a bunch of handy functions you can use inside mutate() (but not exclusively! they work on any old vector too) to do all sorts of magical things. Again, this is not an exhaustive walkthrough of all the tidy functions you might find useful–this is a limited subset of functions/cases that I find myself running into regularly.

n()

n() is a shortcut (only usable inside other tidyverse functions, alas) that returns the number of rows in the current df. I find it a lot safer than using length(my_df) inside of calls operating on my_df (for example).

You can call it inside of other functions inside of mutate() as well.

raw %>%
  # again, to make the print output narrower
  select(-starts_with("q")) %>%
  mutate(nrows = n())

## # A tibble: 1,000 x 8
##       id   age gender trial_num is_old response    rt nrows
##    <int> <int> <chr>      <int>  <int>    <int> <dbl> <int>
##  1     1    32 male           1      0        1 6.01   1000
##  2     1    32 male           2      0        0 1.40   1000
##  3     1    32 male           3      1        1 3.19   1000
##  4     1    32 male           4      0        0 3.33   1000
##  5     1    32 male           5      0        0 0.865  1000
##  6     1    32 male           6      1        1 6.39   1000
##  7     1    32 male           7      0        0 1.94   1000
##  8     1    32 male           8      1        1 3.50   1000
##  9     1    32 male           9      0        1 2.58   1000
## 10     1    32 male          10      0        0 3.53   1000
## # … with 990 more rows
…
