…
it contains different elements that are not bound to be the same type, and can be vectors themselves

Single-bracket indexing returns a list, while double-bracket indexing unwraps the element

elements can have names, which allows indexing by name using brackets or $

Lists as df columns

A df is composed of columns, each of which is a vector of identical length. But nobody ever said the columns of a df all have to be atomic vectors! A df column can be a list vector, where each element of said list-column can contain objects of different data types and lengths.

This becomes a little easier to wrap your head around if we explicitly look at a df with list-columns in it. Below, we’ll take a look at the starwars df, which is a toy dataset about Star Wars characters that comes standard with dplyr.

starwars

## # A tibble: 87 x 14
##    name  height  mass hair_color skin_color eye_color birth_year sex   gender
##    <chr>  <int> <dbl> <chr>      <chr>      <chr>          <dbl> <chr> <chr> 
##  1 Luke…    172    77 blond      fair       blue            19   male  mascu…
##  2 C-3PO    167    75 <NA>       gold       yellow         112   none  mascu…
##  3 R2-D2     96    32 <NA>       white, bl… red             33   none  mascu…
##  4 Dart…    202   136 none       white      yellow          41.9 male  mascu…
##  5 Leia…    150    49 brown      light      brown           19   fema… femin…
##  6 Owen…    178   120 brown, gr… light      blue            52   male  mascu…
##  7 Beru…    165    75 brown      light      blue            47   fema… femin…
##  8 R5-D4     97    32 <NA>       white, red red             NA   none  mascu…
##  9 Bigg…    183    84 black      light      brown           24   male  mascu…
## 10 Obi-…    182    77 auburn, w… fair       blue-gray       57   male  mascu…
## # … with 77 more rows, and 5 more variables: homeworld <chr>, species <chr>,
## #   films <list>, vehicles <list>, starships <list>

In this df, each row is a “subject” (a character from the movies). Currently, this data is “tidy”: each row is a unique observation (subject in this case), and each column is a distinct variable giving information about that observation.

Because this object is a tibble (makes sense since it comes with dplyr), we can inspect the nice print output to see the types of the different columns. We can see that the first few columns are atomic vectors, either numeric like height and mass or character like homeworld. But check out the last three columns…

starwars %>%
  select(name, films, vehicles, starships)

## # A tibble: 87 x 4
##    name               films     vehicles  starships
##    <chr>              <list>    <list>    <list>   
##  1 Luke Skywalker     <chr [5]> <chr [2]> <chr [2]>
##  2 C-3PO              <chr [6]> <chr [0]> <chr [0]>
##  3 R2-D2              <chr [7]> <chr [0]> <chr [0]>
##  4 Darth Vader        <chr [4]> <chr [0]> <chr [1]>
##  5 Leia Organa        <chr [5]> <chr [1]> <chr [0]>
##  6 Owen Lars          <chr [3]> <chr [0]> <chr [0]>
##  7 Beru Whitesun lars <chr [3]> <chr [0]> <chr [0]>
##  8 R5-D4              <chr [1]> <chr [0]> <chr [0]>
##  9 Biggs Darklighter  <chr [1]> <chr [0]> <chr [1]>
## 10 Obi-Wan Kenobi     <chr [6]> <chr [1]> <chr [5]>
## # … with 77 more rows
…
df-ception: df list-columns that contain other dfs

Okay, so now that you’ve seen list-columns that contain different atomic vectors, it’s time to get list-crazy! A list really can contain basically anything in each of its elements. This means that a list can contain a whole df inside of one (or more) of its list elements.

When would you want a df that contains other dfs? Well, remember that list-columns are typically useful to contain multiple observations of information that pertain to one subject/group/etc while allowing your df to take a one-row-per-subject/group structure.

You usually won’t be creating dfs with df-containing list-columns from scratch. More likely, you’ll start with a fully long df, and condense the repeated measures data by folding it into a list-column using tidyr::nest(). Let’s try it with the starwars df, by creating a df that has one row per species x homeworld, and a list-column containing a df for all of the characters of a particular species/homeworld grouping.

starwars_by_species_home <- starwars %>%
  nest(characters = -c(species, homeworld))

starwars_by_species_home

## # A tibble: 58 x 3
##    homeworld species characters       
##    <chr>     <chr>   <list>           
##  1 Tatooine  Human   <tibble [8 × 12]>
##  2 Tatooine  Droid   <tibble [2 × 12]>
##  3 Naboo     Droid   <tibble [1 × 12]>
##  4 Alderaan  Human   <tibble [3 × 12]>
##  5 Stewjon   Human   <tibble [1 × 12]>
##  6 Eriadu    Human   <tibble [1 × 12]>
##  7 Kashyyyk  Wookiee <tibble [2 × 12]>
##  8 Corellia  Human   <tibble [2 × 12]>
##  9 Rodia     Rodian  <tibble [1 × 12]>
## 10 Nal Hutta Hutt    <tibble [1 × 12]>
## # … with 48 more rows
…
In our new nested df, the first row contains all Star Wars characters who are humans from Tatooine. Thus, if we look inside the df stored in the first element of the characters list-column using double-bracket indexing, we see all of the original character-level observations belonging to this group. Notice that inside this sub-df, the columns species and homeworld are absent. This is because these columns are already present in the main df, as the grouping variables.

You can nest() with as many or as few grouping variables as you’d like–anything that you can group_by() you can nest() along.

If you have a nested df that you would like to unnest, and return to fully long form, you can do that using tidyr::unnest(). As you might guess, unnest() essentially does the exact opposite of nest()– it takes list-columns and unfolds them back out to be one row per observation instead of one row per group.

starwars_by_species_home %>%
  unnest(characters)

## # A tibble: 87 x 14
##    homeworld species name  height  mass hair_color skin_color eye_color
##    <chr>     <chr>   <chr>  <int> <dbl> <chr>      <chr>      <chr>    
##  1 Tatooine  Human   Luke…    172    77 blond      fair       blue     
##  2 Tatooine  Human   Dart…    202   136 none       white      yellow   
##  3 Tatooine  Human   Owen…    178   120 brown, gr… light      blue     
##  4 Tatooine  Human   Beru…    165    75 brown      light      blue     
##  5 Tatooine  Human   Bigg…    183    84 black      light      brown    
##  6 Tatooine  Human   Anak…    188    84 blond      fair       blue     
##  7 Tatooine  Human   Shmi…    163    NA black      fair       brown    
##  8 Tatooine  Human   Clie…    183    NA brown      fair       blue     
##  9 Tatooine  Droid   C-3PO    167    75 <NA>       gold       yellow   
## 10 Tatooine  Droid   R5-D4     97    32 <NA>       white, red red      
## # … with 77 more rows, and 6 more variables: birth_year <dbl>, sex <chr>,
## #   gender <chr>, films <list>, vehicles <list>, starships <list>
…
In general, it’s worth always checking to see if the function you plan to call on a vector is vectorized, and then you can use it on your vector without needing any additional looping.

PS: I know there are other things people often use for loops for, including simulations & bootstrapping–these can be vectorized as well, if you wish it! We’ll get to these later though.

Tidy vectorizing

If you use mutate() for your everyday column-wise data manipulation needs, using vectorized functions is smooth. In fact, mutate() is built to encourage you to use vectorized functions for column manipulation.

If we go back to our original simulated data, we can see this at work. For example, let’s create a new column for RT, but stored in milliseconds, not seconds, by multiplying our original RT column by 1000.

raw %>%
  mutate(rt_msec = 1000 * rt)

## # A tibble: 1,000 x 11
##       id   age gender   q_1   q_2   q_3 trial_num is_old response    rt rt_msec
##    <int> <int> <chr>  <dbl> <dbl> <dbl>     <int>  <int>    <int> <dbl>   <dbl>
##  1     1    29 female  28.9  13.4 0.921         1      0        0  1.77   1767.
##  2     1    29 female  28.9  13.4 0.921         2      0        1  1.53   1535.
##  3     1    29 female  28.9  13.4 0.921         3      1        1  1.29   1292.
##  4     1    29 female  28.9  13.4 0.921         4      1        0  3.62   3618.
##  5     1    29 female  28.9  13.4 0.921         5      1        0  1.60   1604.
##  6     1    29 female  28.9  13.4 0.921         6      1        1  2.52   2524.
##  7     1    29 female  28.9  13.4 0.921         7      1        1  2.89   2889.
##  8     1    29 female  28.9  13.4 0.921         8      0        1  3.37   3374.
##  9     1    29 female  28.9  13.4 0.921         9      1        1  2.79   2789.
## 10     1    29 female  28.9  13.4 0.921        10      0        0  2.74   2736.
## # … with 990 more rows
…
And to verify that the trialwise data for the first subject is safe and sound in the first row of the list-column trials:

nested$trials[[1]]

## # A tibble: 50 x 4
##    trial_num is_old response    rt
##        <int>  <int>    <int> <dbl>
##  1         1      0        0  1.77
##  2         2      0        1  1.53
##  3         3      1        1  1.29
##  4         4      1        0  3.62
##  5         5      1        0  1.60
##  6         6      1        1  2.52
##  7         7      1        1  2.89
##  8         8      0        1  3.37
##  9         9      1        1  2.79
## 10        10      0        0  2.74
## # … with 40 more rows
…
If you wanted to pull more values out of coefs, you could unnest() the column directly and create a long-form df that you could manipulate as usual, like below:

nested_with_models %>%
  select(-models) %>% 
  unnest(coefs)

## # A tibble: 40 x 12
##       id   age gender   q_1   q_2    q_3 trials term  estimate std.error
##    <int> <int> <chr>  <dbl> <dbl>  <dbl> <list> <chr>    <dbl>     <dbl>
##  1     1    29 female  28.9  13.4  0.921 <tibb… (Int…   -0.358     0.257
##  2     1    29 female  28.9  13.4  0.921 <tibb… is_o…    0.826     0.366
##  3     2    34 female  33.7  30.7 24.3   <tibb… (Int…   -0.583     0.267
##  4     2    34 female  33.7  30.7 24.3   <tibb… is_o…    1.29      0.383
##  5     3    18 female  22.6  36.4 59.0   <tibb… (Int…   -0.358     0.257
##  6     3    18 female  22.6  36.4 59.0   <tibb… is_o…    0.509     0.359
##  7     4    23 male    25.6  21.4 19.2   <tibb… (Int…   -0.358     0.257
##  8     4    23 male    25.6  21.4 19.2   <tibb… is_o…    1.20      0.384
##  9     5    21 female  45.4  25.3 14.4   <tibb… (Int…   -0.151     0.252
## 10     5    21 female  45.4  25.3 14.4   <tibb… is_o…    0.993     0.381
## # … with 30 more rows, and 2 more variables: statistic <dbl>, p.value <dbl>
…
