Data Manipulation | Columbia Psychology Scientific Computing
…
# use read.csv function to open data into R 
df <- read_csv(here("content", "tutorials", "r-core", "3-datamanipulation", "uncapher_2016_repeated_measures_dataset.csv"))

# we will continue using tidyverse tools
# so we have library()-ed tidyverse at the very top of this document

Familiarizing Yourself with the Data

Quick review from data cleaning: take a look at the basic data structure, number of rows and columns.

# base R functions
df

## # A tibble: 136 x 17
##    subjNum groupStatus numDist conf  hitCount allOldCount rtHit faCount
##      <dbl> <chr>         <dbl> <chr>    <dbl>       <dbl> <dbl>   <dbl>
##  1       6 HMM               0 hi          18          25 0.991       3
##  2       6 HMM               6 hi          14          25 0.952       3
##  3      10 HMM               0 hi           5          25 1.08        8
##  4      10 HMM               6 hi           5          25 1.00        8
##  5      14 HMM               0 hi           3          25 2.35        4
##  6      14 HMM               6 hi           7          25 2.03        4
##  7      15 HMM               0 hi          10          25 1.03        1
##  8      15 HMM               6 hi           9          25 1.16        1
##  9      20 HMM               0 hi           1          25 0.710       2
## 10      20 HMM               6 hi           2          25 0.963       2
## # … with 126 more rows, and 9 more variables: allNewCount <dbl>, rtFA <dbl>,
## #   distPresent <chr>, hitRate <dbl>, faRate <dbl>, dprime <dbl>, mmi <dbl>,
## #   adhd <dbl>, bis <dbl>
…
##  [1]   6  10  14  15  20  22  26  37  41  42  43  49  52  56  63  67  69  71  72
## [20]  85  90  97 108 110 114 115 118 121 125 127 138 139 141 142   2   5   9  11
## [39]  21  24  29  30  36  39  47  48  53  62  66  74  75  77  78  80  81  88  91
## [58]  96  99 102 104 105 120 122 124 131 132 136

# how many subjects are in this dataframe?
Nsubs <- length(SubList)

Calculating number of trials per subject

df %>%
  count(subjNum)

## # A tibble: 68 x 2
##    subjNum     n
##      <dbl> <int>
##  1       2     2
##  2       5     2
##  3       6     2
##  4       9     2
##  5      10     2
##  6      11     2
##  7      14     2
##  8      15     2
##  9      20     2
## 10      21     2
## # … with 58 more rows
…
