Programming, Part 2 | Columbia Psychology Scientific Computing
…
Before you try to write any code, you should talk through what you want to do in plain English before you actually try to code it. This is how you will actually figure out what you need your code to do, and then what functions you need to do the things you want.

As an example, let’s load a dataframe from a study one of the instructors worked as an undergrad. It’s saved within the folders for this project as a CSV file.

data <- read_csv(here("content", "tutorials", "r-core", "3-datamanipulation", "uncapher_2016_one_condition_dataset.csv"))

# Don't worry about the following command; I'm just shortening the dataframe. You'll understand what this means later! Just run it now.
data <- data %>%
  filter(groupStatus != "") %>%
  select(subjNum:bis)

# Let's take a quick look at the dataframe by running a line with its name:
data

## # A tibble: 68 x 17
##    subjNum groupStatus numDist conf  hitCount allOldCount rtHit faCount
##      <dbl> <chr>         <dbl> <chr>    <dbl>       <dbl> <dbl>   <dbl>
##  1      96 LMM               0 hi           9          25 0.861       4
##  2      30 LMM               0 hi          15          25 1.88        3
##  3     104 LMM               0 hi           6          25 0.840       0
##  4      80 LMM               0 hi          16          25 0.872       4
##  5      66 LMM               0 hi          16          25 0.940       1
##  6      47 LMM               0 hi          17          25 0.831      15
##  7      48 LMM               0 hi          14          25 1.16        0
##  8      24 LMM               0 hi          15          25 0.920       3
##  9      11 LMM               0 hi           7          25 0.824       1
## 10     124 LMM               0 hi           6          25 1.24        0
## # … with 58 more rows, and 9 more variables: allNewCount <dbl>, rtFA <dbl>,
## #   distPresent <chr>, hitRate <dbl>, faRate <dbl>, dprime <dbl>, mmi <dbl>,
## #   adhd <dbl>, bis <dbl>
…
