…
## [1] 9

# Names of columns
names(mydata)

## [1] "ID"          "Age"         "Sex"         "Condition"   "Personality"
## [6] "T1"          "T2"          "T3"          "T4"

# look at the first few rows
mydata

## # A tibble: 50 x 9
##       ID   Age Sex    Condition Personality    T1    T2    T3    T4
##    <dbl> <dbl> <chr>      <dbl>       <dbl> <dbl> <dbl> <dbl> <dbl>
##  1     1    21 Female         0          67     5     2     3     1
##  2     2    22 Female         1          63     4     1     5     2
##  3     3    24 Male           1          58     6     2     6     2
##  4     4    22 Female         1          51     2     3     6     5
##  5     5    19 Female         0          49     7     6     5     2
##  6     6    25 Female         1          45     6     3     6     5
##  7     7    24 Female         1          68     7     1     4     6
##  8     8    19 Male           1          58     4     7     3     4
##  9     9    21 Male           1          56     3     4     7     2
## 10    10    20 Female         0          74     6     1     6     2
## # … with 40 more rows
…
Renaming a variable

We’ll demonstrate the %>% command for our first cleaning step. Look back at your mydata data frame. What is that fifth variable? What does that even mean? Luckily, this is your study and you know that it’s a personality questionnaire measuring neuroticism. Let’s fix that using recode() from the dplyr package.

# Simple command with no pipe, commented out so we don't run both.
# mydata <- rename(mydata, Neuroticism=Personality) ## NewVariableName = OldVariableName

# Simple command with pipe
mydata <- mydata %>% 
  rename(Neuroticism=Personality) 

mydata

## # A tibble: 50 x 9
##       ID   Age Sex    Condition Neuroticism    T1    T2    T3    T4
##    <dbl> <dbl> <chr>      <dbl>       <dbl> <dbl> <dbl> <dbl> <dbl>
##  1     1    21 Female         0          67     5     2     3     1
##  2     2    22 Female         1          63     4     1     5     2
##  3     3    24 Male           1          58     6     2     6     2
##  4     4    22 Female         1          51     2     3     6     5
##  5     5    19 Female         0          49     7     6     5     2
##  6     6    25 Female         1          45     6     3     6     5
##  7     7    24 Female         1          68     7     1     4     6
##  8     8    19 Male           1          58     4     7     3     4
##  9     9    21 Male           1          56     3     4     7     2
## 10    10    20 Female         0          74     6     1     6     2
## # … with 40 more rows

It might seem like the first version is simpler, but it won’t be once you start stacking functions together. For example, let’s rearrange our variables (using select()) while also renaming the variables called T1, T2, T3, and T4. Note that we keep adding %>% between each set of functions.

mydata <- mydata %>% 
  rename(Day1 = T1, Day2 = T2, Day3 = T3, Day4 = T4) %>% 
  select(ID, Condition, Age, everything())
mydata

## # A tibble: 50 x 9
##       ID Condition   Age Sex    Neuroticism  Day1  Day2  Day3  Day4
##    <dbl>     <dbl> <dbl> <chr>        <dbl> <dbl> <dbl> <dbl> <dbl>
##  1     1         0    21 Female          67     5     2     3     1
##  2     2         1    22 Female          63     4     1     5     2
##  3     3         1    24 Male            58     6     2     6     2
##  4     4         1    22 Female          51     2     3     6     5
##  5     5         0    19 Female          49     7     6     5     2
##  6     6         1    25 Female          45     6     3     6     5
##  7     7         1    24 Female          68     7     1     4     6
##  8     8         1    19 Male            58     4     7     3     4
##  9     9         1    21 Male            56     3     4     7     2
## 10    10         0    20 Female          74     6     1     6     2
## # … with 40 more rows
…
