Programming, Part 1 | Columbia Psychology Scientific Computing
…
not.a.number <- "7"

The following will return an error if you try to run it:

not.a.number + 1

Dataframe columns have data types too

It’s not only single pieces of information that have a defined data type. Whole dataframe columns of values have data types as well. (This is a requirement of dataframe columns: that they are composed of a set of values that are all the same data type.)

R will tell us a bit about the data types in our dataframe columns when we print the dataframe to console. Let’s take a look:

shakes

## # A tibble: 37 x 3
##    title                     genre   n.words
##    <chr>                     <chr>     <dbl>
##  1 All's Well That Ends Well Comedy    23009
##  2 Antony and Cleopatra      Tragedy   24905
##  3 As You Like It            Comedy    21690
##  4 Comedy of Errors          Comedy    14701
##  5 Coriolanus                Tragedy   27589
##  6 Cymbeline                 Tragedy   27565
##  7 Hamlet                    Tragedy   30557
##  8 Henry IV, Part I          History   24579
##  9 Henry IV, Part II         History   25689
## 10 Henry V                   History   26119
## # … with 27 more rows
…
The first argument that mutate() takes, or information it needs to be able to work, is what dataframe we want to operate on. All of the rest of the function works because mutate() knows which dataframe we are working inside.

After you specify the dataframe in question, we then specify pieces of information in pairs:

The name of the new dataframe column you wish to create

How you want to create that new column

The syntax for creating these new columns is new_column_name = function(old_column_name). For example, if we want to create a new column containing all the values of n.words but divided by 1,000:

mutate(shakes,
       n.words.1k = n.words / 1000)

## # A tibble: 37 x 4
##    title                     genre   n.words n.words.1k
##    <chr>                     <chr>     <dbl>      <dbl>
##  1 All's Well That Ends Well Comedy    23009       23.0
##  2 Antony and Cleopatra      Tragedy   24905       24.9
##  3 As You Like It            Comedy    21690       21.7
##  4 Comedy of Errors          Comedy    14701       14.7
##  5 Coriolanus                Tragedy   27589       27.6
##  6 Cymbeline                 Tragedy   27565       27.6
##  7 Hamlet                    Tragedy   30557       30.6
##  8 Henry IV, Part I          History   24579       24.6
##  9 Henry IV, Part II         History   25689       25.7
## 10 Henry V                   History   26119       26.1
## # … with 27 more rows
…
However, remember that this content is not saved back into the shakes variable unless we re-assign it to the shakes variable name.

We would need to use the <- operator and re-assign this info into shakes to overwrite the OLD dataframe with the NEW one, containing the extra column.

shakes <- mutate(shakes,
       n.words.1k = n.words / 1000)

We can use the same strategy of overwriting the old content of a variable to modify the content of a dataframe column without creating a new one.

In this case, we re-use the name of an existing column on the left side of the equals sign inside of mutate(). Similar to overwriting an existing variable, this will overwrite the existing column with some function applied to the old value of the column.

mutate(shakes,
       genre = tolower(genre))

## # A tibble: 37 x 4
##    title                     genre   n.words n.words.1k
##    <chr>                     <chr>     <dbl>      <dbl>
##  1 All's Well That Ends Well comedy    23009       23.0
##  2 Antony and Cleopatra      tragedy   24905       24.9
##  3 As You Like It            comedy    21690       21.7
##  4 Comedy of Errors          comedy    14701       14.7
##  5 Coriolanus                tragedy   27589       27.6
##  6 Cymbeline                 tragedy   27565       27.6
##  7 Hamlet                    tragedy   30557       30.6
##  8 Henry IV, Part I          history   24579       24.6
##  9 Henry IV, Part II         history   25689       25.7
## 10 Henry V                   history   26119       26.1
## # … with 27 more rows

In the output above, see that the genre column is still where it was, but now all of the genre labels are lowercase instead of having the first letter capitalized.

In the commands above, we have been accessing the columns of our shakes dataframe by typing the column names “naked”, as if they were variables in the environment. However, when we look in the Environment tab in the top-right, we do not see these column names as their own variables! They live inside the dataframe. mutate(), and other tidyverse functions that we will use, have the special ability to allow dataframe column names to be typed on their own, like free-standing variables, inside of these functions. Other functions will not allow this, so be careful in later explorations of R.

What kind of functions can we use to create/modify columns with mutate()? We can use any vectorized function. These are functions that take a process and apply it individually to each element in your column, returning an analogous column where the nth element of the output column is the result of performing the operation on the nth element of the input column.

If you want to do the same thing to a bunch of data, this is the way to do it fast! Basically all the arithmetic operations are vectorized, for example:

mutate(shakes,
       n.words.half = n.words / 2)

## # A tibble: 37 x 5
##    title                     genre   n.words n.words.1k n.words.half
##    <chr>                     <chr>     <dbl>      <dbl>        <dbl>
##  1 All's Well That Ends Well Comedy    23009       23.0       11504.
##  2 Antony and Cleopatra      Tragedy   24905       24.9       12452.
##  3 As You Like It            Comedy    21690       21.7       10845 
##  4 Comedy of Errors          Comedy    14701       14.7        7350.
##  5 Coriolanus                Tragedy   27589       27.6       13794.
##  6 Cymbeline                 Tragedy   27565       27.6       13782.
##  7 Hamlet                    Tragedy   30557       30.6       15278.
##  8 Henry IV, Part I          History   24579       24.6       12290.
##  9 Henry IV, Part II         History   25689       25.7       12844.
## 10 Henry V                   History   26119       26.1       13060.
## # … with 27 more rows
…
## # A tibble: 1 x 1
##   sd.n.words
##        <dbl>
## 1      3789.

Indexing into dataframes

Sometimes, however, you may need to access the content of a dataframe column outside of mutate(), summarize(), or another tidyverse function. Remember that tidyverse functions have the special ability to let you call column names with “naked” variable names, and this ability works because you have to feed in the name of your dataframe as the first argument to the function. That’s how the function knows where to look for the column. Other parts of R don’t work this way, so sometimes we need to use a different technique.

For example, we know there is a column called title inside of the shakes dataframe. Inside of mutate(), for example, you can call this column just by calling title:

mutate(shakes,
       title.length = nchar(title))

## # A tibble: 37 x 5
##    title                     genre   n.words n.words.1k title.length
##    <chr>                     <chr>     <dbl>      <dbl>        <int>
##  1 All's Well That Ends Well Comedy    23009       23.0           25
##  2 Antony and Cleopatra      Tragedy   24905       24.9           20
##  3 As You Like It            Comedy    21690       21.7           14
##  4 Comedy of Errors          Comedy    14701       14.7           16
##  5 Coriolanus                Tragedy   27589       27.6           10
##  6 Cymbeline                 Tragedy   27565       27.6            9
##  7 Hamlet                    Tragedy   30557       30.6            6
##  8 Henry IV, Part I          History   24579       24.6           16
##  9 Henry IV, Part II         History   25689       25.7           17
## 10 Henry V                   History   26119       26.1            7
## # … with 27 more rows
…
